…
``` r
(id <- 
  warrens %>% 
  filter(first_name == "Elizabeth") %>% 
  pull(candidate_id)
)
#> [1] "141272"

(ratings <- 
  rating_get_candidate_ratings(
    candidate_ids = id,
  )
)
#> Requesting data for {candidate_id: 141272, sig_id: }.
#> # A tibble: 514 x 17
#>    rating_id candidate_id sig_id rating rating_name timespan rating_text
#>    <chr>     <chr>        <chr>  <chr>  <chr>       <chr>    <chr>      
#>  1 11196     141272       2884   74     Presidenti… 2020     Senator El…
#>  2 11199     141272       2709   100    Climate Te… 2020     Senator El…
#>  3 11366     141272       101    90     Positions … 2020     Senator El…
#>  4 11438     141272       2804   83     Presidenti… 2020     Senator El…
#>  5 11450     141272       2884   85     Presidenti… 2020     <NA>       
#>  6 11452     141272       2884   87     Presidenti… 2020     Senator El…
#>  7 11504     141272       2859   80     Climate Sc… 2020     Senator El…
#>  8 11601     141272       2811   95     Presidenti… 2020     Senator El…
#>  9 11629     141272       2983   62     Presidenti… 2020     Senator El…
#> 10 11422     141272       2167   92     Positions … 2019-20… <NA>       
#> # … with 504 more rows, and 10 more variables: category_name_1 <chr>,
#> #   category_name_2 <chr>, category_name_3 <chr>, category_name_4 <chr>,
#> #   category_name_5 <chr>, category_name_6 <chr>, category_name_7 <chr>,
#> #   category_name_8 <chr>, category_name_9 <chr>, category_name_10 <chr>
```
…
